…
colnames(medley) <- str_to_lower( colnames(medley) )   

medley

## # A tibble: 34 x 3
##    stream zinc  diversity
##    <chr>  <chr>     <dbl>
##  1 Eagle  BACK       2.27
##  2 Eagle  HIGH       1.25
##  3 Eagle  HIGH       1.15
##  4 Eagle  MED        1.62
##  5 Blue   BACK       1.7 
##  6 Blue   HIGH       0.63
##  7 Blue   BACK       2.05
##  8 Blue   BACK       1.98
##  9 Blue   HIGH       1.04
## 10 Blue   MED        2.19
## #  with 24 more rows
…
