…
nhanes
```

```
## # A tibble: 9,544 x 7
##    subjectId   age sex    height weight ethnicity bornInUS
##        <dbl> <dbl> <fct>   <dbl>  <dbl> <fct>     <fct>   
##  1     83732    62 male     184.   94.8 white     yes     
##  2     83733    53 male     171.   90.4 white     no      
##  3     83734    78 male     170.   83.4 white     yes     
##  4     83735    56 female   161.  110.  white     yes     
##  5     83736    42 female   165.   55.2 black     yes     
##  6     83737    72 female   150    64.4 mexican   no      
##  7     83738    11 female   144.   37.2 mexican   yes     
##  8     83739     4 male     102.   16.4 white     yes     
##  9     83740     1 male      NA    10.1 hispanic  yes     
## 10     83741    22 male     165.   76.6 black     yes     
## # ... with 9,534 more rows
```
…
